info face=tatrisFont3 size=72 bold=0 italic=0 charset= unicode= stretchH=100 smooth=1 aa=1 padding=9,9,9,9 spacing=0,0 outline=0
common lineHeight=80 base=60 scaleW=1024 scaleH=256 pages=1 packed=0
page id=0 file="tatrisFont3.png"
chars count=95
char id=32 x=9 y=9 width=0 height=0 xoffset=0 yoffset=60 xadvance=42 page=0 chnl=15
char id=33 x=9 y=18 width=7 height=50 xoffset=14 yoffset=7 xadvance=42 page=0 chnl=15
char id=34 x=9 y=77 width=28 height=14 xoffset=7 yoffset=7 xadvance=42 page=0 chnl=15
char id=35 x=25 y=9 width=36 height=46 xoffset=4 yoffset=7 xadvance=42 page=0 chnl=15
char id=36 x=9 y=100 width=36 height=50 xoffset=4 yoffset=7 xadvance=42 page=0 chnl=15
char id=37 x=9 y=159 width=36 height=50 xoffset=4 yoffset=7 xadvance=42 page=0 chnl=15
char id=38 x=54 y=64 width=36 height=57 xoffset=4 yoffset=0 xadvance=42 page=0 chnl=15
char id=39 x=9 y=218 width=11 height=14 xoffset=14 yoffset=7 xadvance=42 page=0 chnl=15
char id=40 x=54 y=130 width=18 height=57 xoffset=11 yoffset=0 xadvance=42 page=0 chnl=15
char id=41 x=81 y=130 width=18 height=57 xoffset=14 yoffset=0 xadvance=42 page=0 chnl=15
char id=42 x=70 y=9 width=28 height=32 xoffset=7 yoffset=4 xadvance=42 page=0 chnl=15
char id=43 x=54 y=196 width=36 height=36 xoffset=4 yoffset=14 xadvance=42 page=0 chnl=15
char id=44 x=29 y=218 width=14 height=14 xoffset=11 yoffset=42 xadvance=42 page=0 chnl=15
char id=45 x=99 y=196 width=28 height=7 xoffset=7 yoffset=28 xadvance=42 page=0 chnl=15
char id=46 x=99 y=212 width=7 height=7 xoffset=14 yoffset=49 xadvance=42 page=0 chnl=15
char id=47 x=99 y=50 width=36 height=50 xoffset=4 yoffset=7 xadvance=42 page=0 chnl=15
char id=48 x=108 y=109 width=36 height=50 xoffset=4 yoffset=7 xadvance=42 page=0 chnl=15
char id=49 x=136 y=168 width=21 height=50 xoffset=11 yoffset=7 xadvance=42 page=0 chnl=15
char id=50 x=144 y=9 width=36 height=50 xoffset=4 yoffset=7 xadvance=42 page=0 chnl=15
char id=51 x=153 y=68 width=36 height=50 xoffset=4 yoffset=7 xadvance=42 page=0 chnl=15
char id=52 x=189 y=9 width=36 height=50 xoffset=4 yoffset=7 xadvance=42 page=0 chnl=15
char id=53 x=166 y=127 width=36 height=50 xoffset=4 yoffset=7 xadvance=42 page=0 chnl=15
char id=54 x=198 y=68 width=36 height=50 xoffset=4 yoffset=7 xadvance=42 page=0 chnl=15
char id=55 x=234 y=9 width=36 height=50 xoffset=4 yoffset=7 xadvance=42 page=0 chnl=15
char id=56 x=166 y=186 width=36 height=50 xoffset=4 yoffset=7 xadvance=42 page=0 chnl=15
char id=57 x=211 y=127 width=36 height=50 xoffset=4 yoffset=7 xadvance=42 page=0 chnl=15
char id=58 x=243 y=68 width=7 height=36 xoffset=14 yoffset=14 xadvance=42 page=0 chnl=15
char id=59 x=211 y=186 width=14 height=43 xoffset=7 yoffset=14 xadvance=42 page=0 chnl=15
char id=60 x=234 y=186 width=28 height=53 xoffset=7 yoffset=4 xadvance=42 page=0 chnl=15
char id=61 x=256 y=113 width=36 height=21 xoffset=4 yoffset=21 xadvance=42 page=0 chnl=15
char id=62 x=279 y=9 width=28 height=53 xoffset=7 yoffset=4 xadvance=42 page=0 chnl=15
char id=63 x=271 y=143 width=36 height=50 xoffset=4 yoffset=7 xadvance=42 page=0 chnl=15
char id=64 x=271 y=202 width=36 height=43 xoffset=4 yoffset=11 xadvance=42 page=0 chnl=15
char id=65 x=301 y=71 width=36 height=50 xoffset=4 yoffset=7 xadvance=42 page=0 chnl=15
char id=66 x=316 y=9 width=36 height=50 xoffset=4 yoffset=7 xadvance=42 page=0 chnl=15
char id=67 x=316 y=130 width=36 height=50 xoffset=4 yoffset=7 xadvance=42 page=0 chnl=15
char id=68 x=346 y=68 width=36 height=50 xoffset=4 yoffset=7 xadvance=42 page=0 chnl=15
char id=69 x=361 y=9 width=36 height=50 xoffset=4 yoffset=7 xadvance=42 page=0 chnl=15
char id=70 x=316 y=189 width=36 height=50 xoffset=4 yoffset=7 xadvance=42 page=0 chnl=15
char id=71 x=361 y=127 width=36 height=50 xoffset=4 yoffset=7 xadvance=42 page=0 chnl=15
char id=72 x=391 y=68 width=36 height=50 xoffset=4 yoffset=7 xadvance=42 page=0 chnl=15
char id=73 x=406 y=9 width=21 height=50 xoffset=11 yoffset=7 xadvance=42 page=0 chnl=15
char id=74 x=361 y=186 width=36 height=50 xoffset=4 yoffset=7 xadvance=42 page=0 chnl=15
char id=75 x=406 y=127 width=36 height=50 xoffset=4 yoffset=7 xadvance=42 page=0 chnl=15
char id=76 x=406 y=186 width=36 height=50 xoffset=4 yoffset=7 xadvance=42 page=0 chnl=15
char id=77 x=436 y=9 width=36 height=50 xoffset=4 yoffset=7 xadvance=42 page=0 chnl=15
char id=78 x=436 y=68 width=36 height=50 xoffset=4 yoffset=7 xadvance=42 page=0 chnl=15
char id=79 x=451 y=127 width=36 height=50 xoffset=4 yoffset=7 xadvance=42 page=0 chnl=15
char id=80 x=451 y=186 width=36 height=50 xoffset=4 yoffset=7 xadvance=42 page=0 chnl=15
char id=81 x=481 y=9 width=36 height=50 xoffset=4 yoffset=7 xadvance=42 page=0 chnl=15
char id=82 x=481 y=68 width=36 height=50 xoffset=4 yoffset=7 xadvance=42 page=0 chnl=15
char id=83 x=496 y=127 width=36 height=50 xoffset=4 yoffset=7 xadvance=42 page=0 chnl=15
char id=84 x=496 y=186 width=36 height=50 xoffset=4 yoffset=7 xadvance=42 page=0 chnl=15
char id=85 x=526 y=9 width=36 height=50 xoffset=4 yoffset=7 xadvance=42 page=0 chnl=15
char id=86 x=526 y=68 width=36 height=50 xoffset=4 yoffset=7 xadvance=42 page=0 chnl=15
char id=87 x=541 y=127 width=36 height=50 xoffset=4 yoffset=7 xadvance=42 page=0 chnl=15
char id=88 x=541 y=186 width=36 height=50 xoffset=4 yoffset=7 xadvance=42 page=0 chnl=15
char id=89 x=571 y=9 width=36 height=50 xoffset=4 yoffset=7 xadvance=42 page=0 chnl=15
char id=90 x=571 y=68 width=36 height=50 xoffset=4 yoffset=7 xadvance=42 page=0 chnl=15
char id=91 x=586 y=127 width=21 height=57 xoffset=14 yoffset=0 xadvance=42 page=0 chnl=15
char id=92 x=586 y=193 width=36 height=50 xoffset=4 yoffset=7 xadvance=42 page=0 chnl=15
char id=93 x=616 y=9 width=21 height=57 xoffset=7 yoffset=0 xadvance=42 page=0 chnl=15
char id=94 x=99 y=228 width=36 height=18 xoffset=4 yoffset=7 xadvance=42 page=0 chnl=15
char id=95 x=616 y=75 width=43 height=7 xoffset=0 yoffset=53 xadvance=42 page=0 chnl=15
char id=96 x=108 y=168 width=18 height=11 xoffset=11 yoffset=7 xadvance=42 page=0 chnl=15
char id=97 x=646 y=9 width=36 height=43 xoffset=4 yoffset=14 xadvance=42 page=0 chnl=15
char id=98 x=616 y=91 width=36 height=50 xoffset=4 yoffset=7 xadvance=42 page=0 chnl=15
char id=99 x=631 y=150 width=36 height=39 xoffset=4 yoffset=18 xadvance=42 page=0 chnl=15
char id=100 x=661 y=91 width=36 height=50 xoffset=4 yoffset=7 xadvance=42 page=0 chnl=15
char id=101 x=631 y=198 width=36 height=39 xoffset=4 yoffset=18 xadvance=42 page=0 chnl=15
char id=102 x=691 y=9 width=28 height=50 xoffset=7 yoffset=7 xadvance=42 page=0 chnl=15
char id=103 x=676 y=150 width=36 height=43 xoffset=4 yoffset=14 xadvance=42 page=0 chnl=15
char id=104 x=706 y=68 width=36 height=50 xoffset=4 yoffset=7 xadvance=42 page=0 chnl=15
char id=105 x=728 y=9 width=21 height=46 xoffset=11 yoffset=11 xadvance=42 page=0 chnl=15
char id=106 x=721 y=127 width=21 height=53 xoffset=11 yoffset=4 xadvance=42 page=0 chnl=15
char id=107 x=721 y=189 width=36 height=50 xoffset=4 yoffset=7 xadvance=42 page=0 chnl=15
char id=108 x=751 y=64 width=7 height=50 xoffset=18 yoffset=7 xadvance=42 page=0 chnl=15
char id=109 x=676 y=202 width=36 height=39 xoffset=4 yoffset=18 xadvance=42 page=0 chnl=15
char id=110 x=758 y=9 width=36 height=39 xoffset=4 yoffset=18 xadvance=42 page=0 chnl=15
char id=111 x=751 y=123 width=36 height=39 xoffset=4 yoffset=18 xadvance=42 page=0 chnl=15
char id=112 x=767 y=57 width=36 height=43 xoffset=4 yoffset=14 xadvance=42 page=0 chnl=15
char id=113 x=766 y=171 width=36 height=43 xoffset=4 yoffset=14 xadvance=42 page=0 chnl=15
char id=114 x=803 y=9 width=36 height=39 xoffset=4 yoffset=18 xadvance=42 page=0 chnl=15
char id=115 x=796 y=109 width=36 height=39 xoffset=4 yoffset=18 xadvance=42 page=0 chnl=15
char id=116 x=811 y=157 width=21 height=50 xoffset=11 yoffset=7 xadvance=42 page=0 chnl=15
char id=117 x=812 y=57 width=36 height=39 xoffset=4 yoffset=18 xadvance=42 page=0 chnl=15
char id=118 x=848 y=9 width=36 height=39 xoffset=4 yoffset=18 xadvance=42 page=0 chnl=15
char id=119 x=841 y=105 width=36 height=39 xoffset=4 yoffset=18 xadvance=42 page=0 chnl=15
char id=120 x=857 y=57 width=36 height=39 xoffset=4 yoffset=18 xadvance=42 page=0 chnl=15
char id=121 x=841 y=153 width=36 height=43 xoffset=4 yoffset=14 xadvance=42 page=0 chnl=15
char id=122 x=893 y=9 width=36 height=39 xoffset=4 yoffset=18 xadvance=42 page=0 chnl=15
char id=123 x=886 y=105 width=21 height=57 xoffset=11 yoffset=0 xadvance=42 page=0 chnl=15
char id=124 x=886 y=171 width=7 height=57 xoffset=18 yoffset=0 xadvance=42 page=0 chnl=15
char id=125 x=902 y=171 width=21 height=57 xoffset=11 yoffset=0 xadvance=42 page=0 chnl=15
char id=126 x=841 y=205 width=36 height=14 xoffset=4 yoffset=25 xadvance=42 page=0 chnl=15
char id=32 x=0 y=0 width=0 height=0 xoffset=4 yoffset=25 xadvance=42 page=0 chnl=15