info face=Tatris_text size=72 bold=0 italic=0 charset= unicode= stretchH=100 smooth=1 aa=1 padding=8,8,8,8 spacing=0,0 outline=0
common lineHeight=63 base=64 scaleW=512 scaleH=512 pages=1 packed=0
page id=0 file="Tatris_text.png"
chars count=80
char id=97 x=8 y=8 width=36 height=43 xoffset=4 yoffset=18 xadvance=42 page=0 chnl=15
char id=98 x=8 y=59 width=36 height=50 xoffset=4 yoffset=11 xadvance=42 page=0 chnl=15
char id=99 x=8 y=117 width=36 height=39 xoffset=4 yoffset=21 xadvance=42 page=0 chnl=15
char id=100 x=8 y=164 width=36 height=50 xoffset=4 yoffset=11 xadvance=42 page=0 chnl=15
char id=101 x=8 y=222 width=36 height=39 xoffset=4 yoffset=21 xadvance=42 page=0 chnl=15
char id=102 x=8 y=269 width=28 height=50 xoffset=7 yoffset=11 xadvance=42 page=0 chnl=15
char id=103 x=8 y=327 width=36 height=43 xoffset=4 yoffset=18 xadvance=42 page=0 chnl=15
char id=104 x=44 y=269 width=36 height=50 xoffset=4 yoffset=11 xadvance=42 page=0 chnl=15
char id=105 x=8 y=378 width=21 height=46 xoffset=11 yoffset=14 xadvance=42 page=0 chnl=15
char id=106 x=8 y=432 width=21 height=53 xoffset=11 yoffset=7 xadvance=42 page=0 chnl=15
char id=107 x=37 y=378 width=36 height=50 xoffset=4 yoffset=11 xadvance=42 page=0 chnl=15
char id=108 x=37 y=436 width=7 height=50 xoffset=18 yoffset=11 xadvance=42 page=0 chnl=15
char id=109 x=52 y=327 width=36 height=39 xoffset=4 yoffset=21 xadvance=42 page=0 chnl=15
char id=110 x=52 y=436 width=36 height=39 xoffset=4 yoffset=21 xadvance=42 page=0 chnl=15
char id=111 x=81 y=374 width=36 height=39 xoffset=4 yoffset=21 xadvance=42 page=0 chnl=15
char id=112 x=96 y=421 width=36 height=43 xoffset=4 yoffset=18 xadvance=42 page=0 chnl=15
char id=113 x=52 y=8 width=36 height=43 xoffset=4 yoffset=18 xadvance=42 page=0 chnl=15
char id=114 x=52 y=59 width=36 height=39 xoffset=4 yoffset=21 xadvance=42 page=0 chnl=15
char id=115 x=52 y=106 width=36 height=39 xoffset=4 yoffset=21 xadvance=42 page=0 chnl=15
char id=116 x=52 y=153 width=21 height=50 xoffset=11 yoffset=11 xadvance=42 page=0 chnl=15
char id=117 x=52 y=211 width=36 height=39 xoffset=4 yoffset=21 xadvance=42 page=0 chnl=15
char id=118 x=81 y=153 width=36 height=39 xoffset=4 yoffset=21 xadvance=42 page=0 chnl=15
char id=119 x=88 y=258 width=36 height=39 xoffset=4 yoffset=21 xadvance=42 page=0 chnl=15
char id=120 x=96 y=200 width=36 height=39 xoffset=4 yoffset=21 xadvance=42 page=0 chnl=15
char id=121 x=96 y=305 width=36 height=43 xoffset=4 yoffset=18 xadvance=42 page=0 chnl=15
char id=122 x=132 y=247 width=36 height=39 xoffset=4 yoffset=21 xadvance=42 page=0 chnl=15
char id=65 x=125 y=356 width=36 height=50 xoffset=4 yoffset=11 xadvance=42 page=0 chnl=15
char id=66 x=140 y=294 width=36 height=50 xoffset=4 yoffset=11 xadvance=42 page=0 chnl=15
char id=67 x=140 y=414 width=36 height=50 xoffset=4 yoffset=11 xadvance=42 page=0 chnl=15
char id=68 x=169 y=352 width=36 height=50 xoffset=4 yoffset=11 xadvance=42 page=0 chnl=15
char id=69 x=184 y=410 width=36 height=50 xoffset=4 yoffset=11 xadvance=42 page=0 chnl=15
char id=70 x=96 y=8 width=36 height=50 xoffset=4 yoffset=11 xadvance=42 page=0 chnl=15
char id=71 x=96 y=66 width=36 height=50 xoffset=4 yoffset=11 xadvance=42 page=0 chnl=15
char id=72 x=125 y=124 width=36 height=50 xoffset=4 yoffset=11 xadvance=42 page=0 chnl=15
char id=73 x=140 y=182 width=21 height=50 xoffset=11 yoffset=11 xadvance=42 page=0 chnl=15
char id=74 x=140 y=8 width=36 height=50 xoffset=4 yoffset=11 xadvance=42 page=0 chnl=15
char id=75 x=140 y=66 width=36 height=50 xoffset=4 yoffset=11 xadvance=42 page=0 chnl=15
char id=76 x=169 y=124 width=36 height=50 xoffset=4 yoffset=11 xadvance=42 page=0 chnl=15
char id=77 x=169 y=182 width=36 height=50 xoffset=4 yoffset=11 xadvance=42 page=0 chnl=15
char id=78 x=184 y=240 width=36 height=50 xoffset=4 yoffset=11 xadvance=42 page=0 chnl=15
char id=79 x=213 y=298 width=36 height=50 xoffset=4 yoffset=11 xadvance=42 page=0 chnl=15
char id=80 x=184 y=8 width=36 height=50 xoffset=4 yoffset=11 xadvance=42 page=0 chnl=15
char id=81 x=184 y=66 width=36 height=50 xoffset=4 yoffset=11 xadvance=42 page=0 chnl=15
char id=82 x=213 y=124 width=36 height=50 xoffset=4 yoffset=11 xadvance=42 page=0 chnl=15
char id=83 x=213 y=182 width=36 height=50 xoffset=4 yoffset=11 xadvance=42 page=0 chnl=15
char id=84 x=228 y=240 width=36 height=50 xoffset=4 yoffset=11 xadvance=42 page=0 chnl=15
char id=85 x=228 y=8 width=36 height=50 xoffset=4 yoffset=11 xadvance=42 page=0 chnl=15
char id=86 x=228 y=66 width=36 height=50 xoffset=4 yoffset=11 xadvance=42 page=0 chnl=15
char id=87 x=257 y=124 width=36 height=50 xoffset=4 yoffset=11 xadvance=42 page=0 chnl=15
char id=88 x=257 y=182 width=36 height=50 xoffset=4 yoffset=11 xadvance=42 page=0 chnl=15
char id=89 x=272 y=8 width=36 height=50 xoffset=4 yoffset=11 xadvance=42 page=0 chnl=15
char id=90 x=272 y=66 width=36 height=50 xoffset=4 yoffset=11 xadvance=42 page=0 chnl=15
char id=33 x=228 y=356 width=7 height=50 xoffset=14 yoffset=11 xadvance=42 page=0 chnl=15
char id=8470 x=228 y=414 width=43 height=64 xoffset=0 yoffset=0 xadvance=42 page=0 chnl=15
char id=59 x=184 y=298 width=14 height=43 xoffset=7 yoffset=18 xadvance=42 page=0 chnl=15
char id=37 x=243 y=356 width=36 height=50 xoffset=4 yoffset=11 xadvance=42 page=0 chnl=15
char id=58 x=213 y=356 width=7 height=36 xoffset=14 yoffset=18 xadvance=42 page=0 chnl=15
char id=63 x=257 y=298 width=36 height=50 xoffset=4 yoffset=11 xadvance=42 page=0 chnl=15
char id=42 x=96 y=472 width=28 height=32 xoffset=7 yoffset=7 xadvance=42 page=0 chnl=15
char id=40 x=279 y=414 width=18 height=57 xoffset=11 yoffset=4 xadvance=42 page=0 chnl=15
char id=41 x=301 y=124 width=18 height=57 xoffset=14 yoffset=4 xadvance=42 page=0 chnl=15
char id=95 x=8 y=494 width=43 height=7 xoffset=0 yoffset=56 xadvance=42 page=0 chnl=15
char id=43 x=184 y=468 width=36 height=36 xoffset=4 yoffset=18 xadvance=42 page=0 chnl=15
char id=45 x=59 y=483 width=28 height=7 xoffset=7 yoffset=32 xadvance=42 page=0 chnl=15
char id=61 x=279 y=479 width=36 height=21 xoffset=4 yoffset=25 xadvance=42 page=0 chnl=15
char id=46 x=81 y=421 width=7 height=7 xoffset=14 yoffset=53 xadvance=42 page=0 chnl=15
char id=44 x=228 y=486 width=14 height=14 xoffset=11 yoffset=46 xadvance=42 page=0 chnl=15
char id=47 x=287 y=356 width=36 height=50 xoffset=4 yoffset=11 xadvance=42 page=0 chnl=15
char id=124 x=305 y=414 width=7 height=57 xoffset=18 yoffset=4 xadvance=42 page=0 chnl=15
char id=34 x=132 y=472 width=28 height=14 xoffset=7 yoffset=11 xadvance=42 page=0 chnl=15
char id=39 x=250 y=486 width=11 height=14 xoffset=14 yoffset=11 xadvance=42 page=0 chnl=15
char id=64 x=272 y=240 width=36 height=43 xoffset=4 yoffset=14 xadvance=42 page=0 chnl=15
char id=35 x=320 y=414 width=36 height=46 xoffset=4 yoffset=11 xadvance=42 page=0 chnl=15
char id=36 x=301 y=291 width=36 height=50 xoffset=4 yoffset=11 xadvance=42 page=0 chnl=15
char id=94 x=323 y=468 width=36 height=18 xoffset=4 yoffset=11 xadvance=42 page=0 chnl=15
char id=38 x=331 y=349 width=36 height=57 xoffset=4 yoffset=4 xadvance=42 page=0 chnl=15
char id=123 x=367 y=414 width=21 height=57 xoffset=11 yoffset=4 xadvance=42 page=0 chnl=15
char id=125 x=316 y=189 width=21 height=57 xoffset=11 yoffset=4 xadvance=42 page=0 chnl=15
char id=91 x=316 y=8 width=21 height=57 xoffset=14 yoffset=4 xadvance=42 page=0 chnl=15
char id=93 x=327 y=73 width=21 height=57 xoffset=7 yoffset=4 xadvance=42 page=0 chnl=15
char id=32 x=0 y=0 width=0 height=0 xoffset=7 yoffset=4 xadvance=42 page=0 chnl=15